{
  "key": "",
  "admin_user": "",
  "default_user": "",
  "cidr_list": "",
  "exclude_cidr_list": "",
  "port": 22,
  "key_type": "ca",
  "key_bits": 1024,
  "install_script": "",
  "allowed_users": "",
  "allowed_users_template": false,
  "allowed_domains": "",
  "key_option_specs": "",
  "ttl" : "",
  "allowed_critical_options": "",
  "allowed_extensions" : "",
  "default_critical_options" : {},
  "default_extensions" : {},
  "allow_user_certificates" : false,
  "allow_host_certificates" : true,
  "allow_bare_domains" : false,
  "allow_subdomains" : false,
  "allow_user_key_ids" : false,
  "key_id_format" : "",
  "allowed_user_key_lengths" : {},
  "algorithm_signer" : ""
}